note:
     260,226437486 seconds time elapsed
note:  moved f for before d to optimize cache
     111,467696374 seconds time elapsed
note:  moved e before d, added temp variable"
     131,440606332 seconds time elapsed
note:  moved
     131,424581384 seconds time elapsed
note:  _added_pointer_to_deltaweight
     130,934046758 seconds time elapsed
note:  _removed_d_before_e
     131,878806391 seconds time elapsed
note:  _removed_temp
      81,075707749 seconds time elapsed
note:  _seg_fault
      80,771414972 seconds time elapsed
note:  _seg_fault
      81,622252438 seconds time elapsed
note:  _new_temp_pointers
      69,382419489 seconds time elapsed
note:  _new_temp_pointers
      66,805031226 seconds time elapsed
note:  _removedfirstfor,fori=0
      76,322757032 seconds time elapsed
note:  pointerfordeltah2hh1p
      76,151155886 seconds time elapsed
note:  addedforforinitializationofi=0
      74,450639648 seconds time elapsed
note:  addedforforinitializationofi=0
      75,263112273 seconds time elapsed
note:  splittedlonginstructionin2
      84,946426636 seconds time elapsed
note:  invertedforh
      73,904601198 seconds time elapsed
note:  differentpointer,iisspecified
      73,546056418 seconds time elapsed
note:  added*etatopreviousfor
      67,570658674 seconds time elapsed
note:  rectoring,endof3.2serial
      67,347738735 seconds time elapsed
note:  analysisof2.
      67,639093226 seconds time elapsed
note:  invertedforh
      67,811260372 seconds time elapsed
note:  addedtempforSumDOW
      67,230794350 seconds time elapsed
note:  tryfor32
      67,842297896 seconds time elapsed
note:  tryfor32
      64,748250617 seconds time elapsed
note:  removedalphaproductfromnpcycle
      57,680682197 seconds time elapsed
note:  removedalphaproductfromnpcycle
      62,540161284 seconds time elapsed
note:  removedalphaproductfromnpcycle
      58,685311342 seconds time elapsed
note:  removedalphaproductfromnpcycle
      40,034450062 seconds time elapsed
note:  addedoptflagsandvect
      13,316263026 seconds time elapsed
note:  sometemps
      13,240673591 seconds time elapsed
note:  sumpk,pj
      13,662075562 seconds time elapsed
note:  fixedactualon3.
      13,632440058 seconds time elapsed
note:  actualon3.1
      13,682866153 seconds time elapsed
note:
      14,061942779 seconds time elapsed
